@startuml

skinparam {
    defaultFontSize 9
    component {
        BorderThickness 0.8
        BorderColor #222
        FontColor #444
        BackgroundColor #f0f0f0
        ArrowColor #aaa
    }
    database {
        BorderColor #aaa
        BackgroundColor #f0fafa
        ArrowColor #aaa
    }
    interface {
        BorderColor gray
        BackgroundColor #fdfdfd
    }
    note {
        BackgroundColor #fefef0
        FontColor #666644
        BorderColor gray
    }
    node {
        BorderColor #ccc
        FontColor gray
    }
}

node AIS {
database "Oracle db\n" as oracle
}

node "Elisa docker stack"{
component "<< Angular >>\n\n= elisa UI\n\nelisa-ui-api-angular-client\n" as frontend #d9e1f4
component "<< SpringBoot >>\n\n= elisa UI API\n\nelisa-ui-api-endpoint\n" as bff #d9e1f4
component "<< Django >>\n\n= elisa API\n\nelisa-api-django\nelisa-api-angular-client\n" as backend #d9e1f4
component "<< Django >>\n\n= elisa neuro API\n\nelisa-api-neuro\n" as neuro #d9e1f4

interface "/api-gateway" as elisaUiApi
bff -u- elisaUiApi
frontend ..> elisaUiApi : HTTP\n/ REST

interface "/elisa-api" as elisaApi
backend -u- elisaApi
frontend ..> elisaApi : HTTP\n/ REST

interface "/elisa-neuro" as elisaNeuro
neuro -u- elisaNeuro
frontend ..> elisaNeuro : HTTP\n/ REST

database "Postgres db\n\nauth_group\nauth_group_permissions\nauth_permission\nelisa_app_settings\nfei_appuser\nfei_appuser_groups\nfei_appuser_preferences\nfei_appuser_user_permissions\nfei_department\nfei_domain\nfei_period\nfei_userdepartment\nfei_version\n" as postgresdb

backend -- postgresdb : <<jdbc>>
backend -l- oracle : <<jdbc>>
}

actor "Hlavný rozvrhár" as user
actor "Lokálny rozvrhár" as luser
actor Študent as student
actor Učiteľ as teacher
user ..> frontend
luser ..> frontend
student ..> frontend
teacher ..> frontend

node "Služby tretích strán" as 3rdParty {
component "Google" as google
component "Facebook" as fb
component "Gitlab" as gl
component "Github" as gh
}


bff -(0- google : HTTP\n/ REST
bff -(0- fb : HTTP\n/ REST
bff -(0- gl : HTTP\n/ REST
bff -(0- gh : HTTP\n/ REST

@enduml
